Calling the script ...
ERROR: unable to read the number of plots from the command line (only argument), so using default = 4. argv = ['/home/lilian/stage/src/plot_cos^k_times_sin^n-k.py']


Plotting cos^k(theta) sin^{n+1-k}(theta) functions, for all k = 1 ... n with n = 2 ...
  Computing y_i = \cos(x)^2 \sin(x)^1$ ...
  Computing y_i = \cos(x)^1 \sin(x)^2$ ...
New figure ...
  Plotting y_i = \cos(x)^2 \sin(x)^1$ ...
  Plotting y_i = \cos(x)^1 \sin(x)^2$ ...
Done for the figure ... Saving it ...
... Saving to 'cos2sin1_and_cos1sin2.png'...
Showing the figure ...


Plotting cos^k(theta) sin^{n+1-k}(theta) functions, for all k = 1 ... n with n = 3 ...
  Computing y_i = \cos(x)^3 \sin(x)^1$ ...
  Computing y_i = \cos(x)^2 \sin(x)^2$ ...
  Computing y_i = \cos(x)^1 \sin(x)^3$ ...
New figure ...
  Plotting y_i = \cos(x)^3 \sin(x)^1$ ...
  Plotting y_i = \cos(x)^2 \sin(x)^2$ ...
  Plotting y_i = \cos(x)^1 \sin(x)^3$ ...
Done for the figure ... Saving it ...
... Saving to 'cos3sin1_and_cos2sin2_and_cos1sin3.png'...
Showing the figure ...


Plotting cos^k(theta) sin^{n+1-k}(theta) functions, for all k = 1 ... n with n = 4 ...
  Computing y_i = \cos(x)^4 \sin(x)^1$ ...
  Computing y_i = \cos(x)^3 \sin(x)^2$ ...
  Computing y_i = \cos(x)^2 \sin(x)^3$ ...
  Computing y_i = \cos(x)^1 \sin(x)^4$ ...
New figure ...
  Plotting y_i = \cos(x)^4 \sin(x)^1$ ...
  Plotting y_i = \cos(x)^3 \sin(x)^2$ ...
  Plotting y_i = \cos(x)^2 \sin(x)^3$ ...
  Plotting y_i = \cos(x)^1 \sin(x)^4$ ...
Done for the figure ... Saving it ...
... Saving to 'cos4sin1_and_cos3sin2_and_cos2sin3_and_cos1sin4.png'...
Showing the figure ...
